{
  "break": {
    "de": "Macht eine Pause...",
    "en": "Taking a break..."
  },
  "nextStop": {
    "de": "Nächster Halt: {{station}}",
    "en": "Next stop: {{station}}"
  },
  "notTravelling": {
    "de": "Zurzeit nicht auf einer Reise",
    "en": "Currently not travelling"
  }
}